- generic [ref=e2]: "{\"universities\":[{\"id\":\"87e2e665-fecf-40ed-b58c-458727f5f0b7\",\"name\":\"Inner Mongolia University\",\"slug\":\"inner-mongolia-university-43\",\"logo\":\"https://via.placeholder.com/200x100?text=Inner\",\"banner\":\"https://via.placeholder.com/1200x300?text=Inner%20Mongolia%20University\",\"worldRank\":264,\"location\":\"Hefei\",\"studentCount\":82599,\"tags\":[\"liberal-arts\",\"top-10\",\"top-50\",\"international\"],\"intake\":\"Winter\",\"deadline\":\"2026-07-30T16:00:00.000Z\",\"province\":\"Anhui\",\"createdAt\":\"2026-04-24T05:05:11.412Z\",\"updatedAt\":\"2026-04-24T05:05:11.412Z\"},{\"id\":\"0884fdbc-576b-4c9b-992b-f62feeb19de2\",\"name\":\"Jinan University\",\"slug\":\"jinan-university-68\",\"logo\":\"https://via.placeholder.com/200x100?text=Jinan\",\"banner\":\"https://via.placeholder.com/1200x300?text=Jinan%20University\",\"worldRank\":453,\"location\":\"Changsha\",\"studentCount\":92929,\"tags\":[\"research\",\"accredited\",\"top-50\"],\"intake\":\"Fall\",\"deadline\":\"2026-07-30T16:00:00.000Z\",\"province\":\"Hunan\",\"createdAt\":\"2026-04-24T05:05:11.412Z\",\"updatedAt\":\"2026-04-24T05:05:11.412Z\"},{\"id\":\"7e074e49-f203-4ffb-a191-51f1ee506f71\",\"name\":\"Kunming University of Science and Technology\",\"slug\":\"kunming-university-of-science-and-technology-59\",\"logo\":\"https://via.placeholder.com/200x100?text=Kunming\",\"banner\":\"https://via.placeholder.com/1200x300?text=Kunming%20University%20of%20Science%20and%20Technology\",\"worldRank\":204,\"location\":\"Shenyang\",\"studentCount\":96733,\"tags\":[\"top-50\",\"engineering\",\"funded\",\"merit-based\"],\"intake\":\"Fall\",\"deadline\":\"2026-07-30T16:00:00.000Z\",\"province\":\"Liaoning\",\"createdAt\":\"2026-04-24T05:05:11.412Z\",\"updatedAt\":\"2026-04-24T05:05:11.412Z\"},{\"id\":\"df71e3c8-8efb-4723-988b-b32a01d159af\",\"name\":\"Central South University of Forestry and Technology\",\"slug\":\"central-south-university-of-forestry-and-technology-54\",\"logo\":\"https://via.placeholder.com/200x100?text=Central\",\"banner\":\"https://via.placeholder.com/1200x300?text=Central%20South%20University%20of%20Forestry%20and%20Technology\",\"worldRank\":117,\"location\":\"Hefei\",\"studentCount\":59185,\"tags\":[\"top-10\",\"funded\",\"merit-based\",\"accredited\"],\"intake\":\"Spring\",\"deadline\":\"2026-07-30T16:00:00.000Z\",\"province\":\"Anhui\",\"createdAt\":\"2026-04-24T05:05:11.412Z\",\"updatedAt\":\"2026-04-24T05:05:11.412Z\"},{\"id\":\"0c2ec3f7-6915-4e6f-b29e-3231fbf3cb72\",\"name\":\"Central China Normal University\",\"slug\":\"central-china-normal-university-51\",\"logo\":\"https://via.placeholder.com/200x100?text=Central\",\"banner\":\"https://via.placeholder.com/1200x300?text=Central%20China%20Normal%20University\",\"worldRank\":458,\"location\":\"Fuzhou\",\"studentCount\":62963,\"tags\":[\"merit-based\",\"accredited\",\"top-10\"],\"intake\":\"Winter\",\"deadline\":\"2026-07-30T16:00:00.000Z\",\"province\":\"Fujian\",\"createdAt\":\"2026-04-24T05:05:11.412Z\",\"updatedAt\":\"2026-04-24T05:05:11.412Z\"},{\"id\":\"40d29b55-7309-4f9c-b413-bf6b90ba692b\",\"name\":\"Xinjiang University\",\"slug\":\"xinjiang-university-62\",\"logo\":\"https://via.placeholder.com/200x100?text=Xinjiang\",\"banner\":\"https://via.placeholder.com/1200x300?text=Xinjiang%20University\",\"worldRank\":244,\"location\":\"Shijiazhuang\",\"studentCount\":52146,\"tags\":[\"international\",\"funded\",\"liberal-arts\"],\"intake\":\"Spring\",\"deadline\":\"2026-07-30T16:00:00.000Z\",\"province\":\"Hebei\",\"createdAt\":\"2026-04-24T05:05:11.412Z\",\"updatedAt\":\"2026-04-24T05:05:11.412Z\"},{\"id\":\"7f51f023-7294-4e36-85c9-9edfccaeca61\",\"name\":\"Ocean University of China\",\"slug\":\"ocean-university-of-china-45\",\"logo\":\"https://via.placeholder.com/200x100?text=Ocean\",\"banner\":\"https://via.placeholder.com/1200x300?text=Ocean%20University%20of%20China\",\"worldRank\":126,\"location\":\"Zhuhai\",\"studentCount\":36622,\"tags\":[\"research\",\"engineering\",\"liberal-arts\",\"merit-based\",\"accredited\"],\"intake\":\"Summer\",\"deadline\":\"2026-07-30T16:00:00.000Z\",\"province\":\"Guangdong\",\"createdAt\":\"2026-04-24T05:05:11.412Z\",\"updatedAt\":\"2026-04-24T05:05:11.412Z\"},{\"id\":\"77d2e858-1c5c-4c8f-967b-5740fd2709a4\",\"name\":\"Nanchang University\",\"slug\":\"nanchang-university-48\",\"logo\":\"https://via.placeholder.com/200x100?text=Nanchang\",\"banner\":\"https://via.placeholder.com/1200x300?text=Nanchang%20University\",\"worldRank\":12,\"location\":\"Wuxi\",\"studentCount\":36202,\"tags\":[\"top-10\",\"top-50\",\"research\",\"engineering\",\"accredited\"],\"intake\":\"Spring\",\"deadline\":\"2026-07-30T16:00:00.000Z\",\"province\":\"Jiangsu\",\"createdAt\":\"2026-04-24T05:05:11.412Z\",\"updatedAt\":\"2026-04-24T05:05:11.412Z\"},{\"id\":\"9440adf5-e03b-4bde-9522-54739b825e6c\",\"name\":\"Central South University\",\"slug\":\"central-south-university-52\",\"logo\":\"https://via.placeholder.com/200x100?text=Central\",\"banner\":\"https://via.placeholder.com/1200x300?text=Central%20South%20University\",\"worldRank\":146,\"location\":\"Shanghai\",\"studentCount\":50652,\"tags\":[\"top-10\",\"funded\"],\"intake\":\"Spring\",\"deadline\":\"2026-07-30T16:00:00.000Z\",\"province\":\"Shanghai\",\"createdAt\":\"2026-04-24T05:05:11.412Z\",\"updatedAt\":\"2026-04-24T05:05:11.412Z\"},{\"id\":\"18bbfa2f-1168-4cd8-b88b-ad95f840a037\",\"name\":\"Ningxia University\",\"slug\":\"ningxia-university-44\",\"logo\":\"https://via.placeholder.com/200x100?text=Ningxia\",\"banner\":\"https://via.placeholder.com/1200x300?text=Ningxia%20University\",\"worldRank\":56,\"location\":\"Beijing\",\"studentCount\":30525,\"tags\":[\"top-10\",\"top-50\",\"funded\",\"engineering\"],\"intake\":\"Spring\",\"deadline\":\"2026-07-30T16:00:00.000Z\",\"province\":\"Beijing\",\"createdAt\":\"2026-04-24T05:05:11.412Z\",\"updatedAt\":\"2026-04-24T05:05:11.412Z\"},{\"id\":\"8f8c61e5-685c-4a29-82e2-308ae3968dab\",\"name\":\"Wuhan University of Technology\",\"slug\":\"wuhan-university-of-technology-55\",\"logo\":\"https://via.placeholder.com/200x100?text=Wuhan\",\"banner\":\"https://via.placeholder.com/1200x300?text=Wuhan%20University%20of%20Technology\",\"worldRank\":334,\"location\":\"Jinan\",\"studentCount\":69750,\"tags\":[\"top-10\",\"accredited\",\"liberal-arts\",\"top-50\",\"merit-based\"],\"intake\":\"Fall\",\"deadline\":\"2026-07-30T16:00:00.000Z\",\"province\":\"Shandong\",\"createdAt\":\"2026-04-24T05:05:11.412Z\",\"updatedAt\":\"2026-04-24T05:05:11.412Z\"},{\"id\":\"ec0b6f96-22bc-4d58-b072-60cbeac9f552\",\"name\":\"East China University of Science and Technology\",\"slug\":\"east-china-university-of-science-and-technology-34\",\"logo\":\"https://via.placeholder.com/200x100?text=East\",\"banner\":\"https://via.placeholder.com/1200x300?text=East%20China%20University%20of%20Science%20and%20Technology\",\"worldRank\":126,\"location\":\"Beijing\",\"studentCount\":34122,\"tags\":[\"funded\",\"research\",\"international\",\"accredited\"],\"intake\":\"Fall\",\"deadline\":\"2026-07-30T16:00:00.000Z\",\"province\":\"Beijing\",\"createdAt\":\"2026-04-24T05:05:11.412Z\",\"updatedAt\":\"2026-04-24T05:05:11.412Z\"}],\"pagination\":{\"page\":1,\"limit\":12,\"total\":71,\"totalPages\":6}}"