- generic [ref=e2]: "{\"posts\":[{\"id\":\"2b5111ce-91a3-4286-b63b-b5f7a1c84777\",\"title\":\"Your Complete Guide to Visa Application Process\",\"slug\":\"your-complete-guide-to-visa-application-process-111656\",\"content\":\"Exchange programs provide unique opportunities to study in different countries. Learn how to make the most of this experience.\",\"featuredImage\":\"https://via.placeholder.com/800x400?text=Your%20Complete%20Guide%20to%20Visa%20Ap\",\"category\":\"Student Stories\",\"topic\":\"Admission\",\"viewCount\":2696,\"published\":true,\"publishedAt\":\"2026-04-23T05:05:11.655Z\",\"createdAt\":\"2026-04-24T05:05:11.657Z\",\"updatedAt\":\"2026-04-24T05:05:11.657Z\"},{\"id\":\"178687f7-6fc1-4242-b690-2b7256185c1c\",\"title\":\"Overcoming Culture Shock\",\"slug\":\"overcoming-culture-shock-111656\",\"content\":\"Cultural adjustment is a normal part of studying abroad. Learn coping strategies and ways to embrace your new environment.\",\"featuredImage\":\"https://via.placeholder.com/800x400?text=Overcoming%20Culture%20Shock\",\"category\":\"Guides\",\"topic\":\"Language\",\"viewCount\":484,\"published\":true,\"publishedAt\":\"2026-04-21T05:05:11.655Z\",\"createdAt\":\"2026-04-24T05:05:11.657Z\",\"updatedAt\":\"2026-04-24T05:05:11.657Z\"},{\"id\":\"a0f6b3c9-29d2-4a33-ae08-34346e5c2d99\",\"title\":\"Preparing for English Proficiency Tests\",\"slug\":\"preparing-for-english-proficiency-tests-111656\",\"content\":\"Understanding the education systems in different countries is vital for making informed decisions. Compare curricula, teaching methods, and outcomes across various institutions.\",\"featuredImage\":\"https://via.placeholder.com/800x400?text=Preparing%20for%20English%20Proficie\",\"category\":\"Tips\",\"topic\":\"Culture\",\"viewCount\":1194,\"published\":true,\"publishedAt\":\"2026-04-19T05:05:11.655Z\",\"createdAt\":\"2026-04-24T05:05:11.657Z\",\"updatedAt\":\"2026-04-24T05:05:11.657Z\"},{\"id\":\"83b2591d-6628-4f75-af6a-1a19f51504fa\",\"title\":\"How to Write a Compelling Personal Statement\",\"slug\":\"how-to-write-a-compelling-personal-statement-111656\",\"content\":\"Understanding the education systems in different countries is vital for making informed decisions. Compare curricula, teaching methods, and outcomes across various institutions.\",\"featuredImage\":\"https://via.placeholder.com/800x400?text=How%20to%20Write%20a%20Compelling%20Pers\",\"category\":\"Tips\",\"topic\":\"Language\",\"viewCount\":436,\"published\":true,\"publishedAt\":\"2026-04-16T05:05:11.655Z\",\"createdAt\":\"2026-04-24T05:05:11.657Z\",\"updatedAt\":\"2026-04-24T05:05:11.657Z\"},{\"id\":\"b8e3434d-8326-425c-a50a-3ee10a7d899d\",\"title\":\"How to Choose the Right University for You\",\"slug\":\"how-to-choose-the-right-university-for-you-111656\",\"content\":\"Cultural adjustment is a normal part of studying abroad. Learn coping strategies and ways to embrace your new environment.\",\"featuredImage\":\"https://via.placeholder.com/800x400?text=How%20to%20Choose%20the%20Right%20Univer\",\"category\":\"Guides\",\"topic\":\"Visa\",\"viewCount\":3403,\"published\":true,\"publishedAt\":\"2026-04-16T05:05:11.655Z\",\"createdAt\":\"2026-04-24T05:05:11.657Z\",\"updatedAt\":\"2026-04-24T05:05:11.657Z\"},{\"id\":\"7f9f3887-0ada-4e86-a56c-dfe28790d14d\",\"title\":\"Networking Tips for International Students\",\"slug\":\"networking-tips-for-international-students-111656\",\"content\":\"Building a professional network during your studies can benefit you throughout your career. Discover effective networking strategies.\",\"featuredImage\":\"https://via.placeholder.com/800x400?text=Networking%20Tips%20for%20Internatio\",\"category\":\"News\",\"topic\":\"Scholarships\",\"viewCount\":1231,\"published\":true,\"publishedAt\":\"2026-04-08T05:05:11.655Z\",\"createdAt\":\"2026-04-24T05:05:11.657Z\",\"updatedAt\":\"2026-04-24T05:05:11.657Z\"},{\"id\":\"db1d4d31-e5ae-43f2-9559-27a339247101\",\"title\":\"Life as an International Student: What to Expect\",\"slug\":\"life-as-an-international-student-what-to-expect-111656\",\"content\":\"Language proficiency tests are often required for international study. Learn preparation strategies for IELTS, TOEFL, and other exams.\",\"featuredImage\":\"https://via.placeholder.com/800x400?text=Life%20as%20an%20International%20Stude\",\"category\":\"Student Stories\",\"topic\":\"University Life\",\"viewCount\":3535,\"published\":true,\"publishedAt\":\"2026-04-08T05:05:11.655Z\",\"createdAt\":\"2026-04-24T05:05:11.657Z\",\"updatedAt\":\"2026-04-24T05:05:11.657Z\"},{\"id\":\"48478258-892f-48cd-b5a0-9381c5f9ab91\",\"title\":\"Scholarship Opportunities for International Students\",\"slug\":\"scholarship-opportunities-for-international-students-111656\",\"content\":\"Exchange programs provide unique opportunities to study in different countries. Learn how to make the most of this experience.\",\"featuredImage\":\"https://via.placeholder.com/800x400?text=Scholarship%20Opportunities%20for%20\",\"category\":\"Guides\",\"topic\":\"University Life\",\"viewCount\":1277,\"published\":true,\"publishedAt\":\"2026-04-04T05:05:11.655Z\",\"createdAt\":\"2026-04-24T05:05:11.657Z\",\"updatedAt\":\"2026-04-24T05:05:11.657Z\"},{\"id\":\"1b231a3d-679b-44d8-b4dc-ab0e8ed40dc4\",\"title\":\"Campus Life at Leading Universities\",\"slug\":\"campus-life-at-leading-universities-111656\",\"content\":\"Building a professional network during your studies can benefit you throughout your career. Discover effective networking strategies.\",\"featuredImage\":\"https://via.placeholder.com/800x400?text=Campus%20Life%20at%20Leading%20Univers\",\"category\":\"Guides\",\"topic\":\"Admission\",\"viewCount\":3447,\"published\":true,\"publishedAt\":\"2026-04-01T05:05:11.655Z\",\"createdAt\":\"2026-04-24T05:05:11.657Z\",\"updatedAt\":\"2026-04-24T05:05:11.657Z\"},{\"id\":\"b778a992-14b0-463f-992b-5bf4d808c648\",\"title\":\"Understanding International Education Systems\",\"slug\":\"understanding-international-education-systems-111656\",\"content\":\"Understanding the education systems in different countries is vital for making informed decisions. Compare curricula, teaching methods, and outcomes across various institutions.\",\"featuredImage\":\"https://via.placeholder.com/800x400?text=Understanding%20International%20Ed\",\"category\":\"Updates\",\"topic\":\"Scholarships\",\"viewCount\":2294,\"published\":true,\"publishedAt\":\"2026-03-21T05:05:11.655Z\",\"createdAt\":\"2026-04-24T05:05:11.657Z\",\"updatedAt\":\"2026-04-24T05:05:11.657Z\"}],\"pagination\":{\"page\":1,\"limit\":10,\"total\":20,\"totalPages\":2}}"